\relax 
\@writefile{lof}{\contentsline {figure}{\numberline {1}{\ignorespaces Temperature solution generated by mesh of P1 elements\relax }}{2}}
\providecommand*\caption@xref[2]{\@setref\relax\@undefined{#1}}
\newlabel{fig:tri_cont}{{1}{2}}
\@writefile{lof}{\contentsline {figure}{\numberline {2}{\ignorespaces Heat flux distributions along line AB of P1 mesh solution\relax }}{3}}
\newlabel{fig:AB_flux}{{2}{3}}
\@writefile{lof}{\contentsline {figure}{\numberline {3}{\ignorespaces Temperature distribution along line AB of P1 mesh solution\relax }}{3}}
\newlabel{fig:AB_temp}{{3}{3}}
\citation{CHAMBERLAND2010664}
\citation{CHAMBERLAND2010664}
\@writefile{lof}{\contentsline {figure}{\numberline {4}{\ignorespaces Graph of flux distributions given by different order derivative shape functions\relax }}{4}}
\newlabel{fig:quad_cont}{{4}{4}}
\bibdata{ref}
\bibcite{CHAMBERLAND2010664}{1}
\bibstyle{unsrt}
\newlabel{fig:J_i}{{5a}{5}}
\newlabel{sub@fig:J_i}{{(a)}{a}}
\newlabel{fig:J_p}{{5b}{5}}
\newlabel{sub@fig:J_p}{{(b)}{b}}
\@writefile{lof}{\contentsline {figure}{\numberline {5}{\ignorespaces Distribution of Jacobian values for a Q2 version of element 4\relax }}{5}}
\newlabel{fig:J_4}{{5}{5}}
\@writefile{lof}{\contentsline {subfigure}{\numberline{(a)}{\ignorespaces {Displayed in the isoparametric space}}}{5}}
\@writefile{lof}{\contentsline {subfigure}{\numberline{(b)}{\ignorespaces {Displayed in the physical space}}}{5}}
