\relax 
\abx@aux@sortscheme{nty}
\abx@aux@sortnamekeyscheme{global}
\@writefile{toc}{\boolfalse {citerequest}\boolfalse {citetracker}\boolfalse {pagetracker}\boolfalse {backtracker}\relax }
\@writefile{lof}{\boolfalse {citerequest}\boolfalse {citetracker}\boolfalse {pagetracker}\boolfalse {backtracker}\relax }
\@writefile{lot}{\boolfalse {citerequest}\boolfalse {citetracker}\boolfalse {pagetracker}\boolfalse {backtracker}\relax }
\@writefile{toc}{\defcounter {refsection}{0}\relax }\@writefile{toc}{\contentsline {section}{\numberline {1}Derivations}{1}}
\@writefile{toc}{\defcounter {refsection}{0}\relax }\@writefile{toc}{\contentsline {subsection}{\numberline {1.1}Derivation of the weak form and its Galerkin discretization}{1}}
\newlabel{eq:weak form}{{4}{1}}
\@writefile{toc}{\defcounter {refsection}{0}\relax }\@writefile{toc}{\contentsline {subsection}{\numberline {1.2}Composing the residual problem}{2}}
\newlabel{eq:res}{{7}{2}}
\@writefile{toc}{\defcounter {refsection}{0}\relax }\@writefile{toc}{\contentsline {subsection}{\numberline {1.3}Solving the problem utilizing the Newton-Raphson scheme}{2}}
\newlabel{eq:kt complex}{{9}{2}}
\newlabel{eq:kt index}{{11}{2}}
\newlabel{eq:kt matrix}{{12}{2}}
\@writefile{toc}{\defcounter {refsection}{0}\relax }\@writefile{toc}{\contentsline {section}{\numberline {2}Problem solving}{3}}
\newlabel{sec:first solve}{{2.1}{3}}
\@writefile{toc}{\defcounter {refsection}{0}\relax }\@writefile{toc}{\contentsline {subsection}{\numberline {2.1}Solving the boundary value problem }{3}}
\@writefile{lof}{\defcounter {refsection}{0}\relax }\@writefile{lof}{\contentsline {figure}{\numberline {1}{\ignorespaces Solution to the problem as defined in section 2.1\hbox {}\relax }}{3}}
\providecommand*\caption@xref[2]{\@setref\relax\@undefined{#1}}
\newlabel{fig:first solution}{{1}{3}}
\@writefile{toc}{\defcounter {refsection}{0}\relax }\@writefile{toc}{\contentsline {subsection}{\numberline {2.2}Increased nonlinearity and mesh refinement}{3}}
\@writefile{toc}{\defcounter {refsection}{0}\relax }\@writefile{toc}{\contentsline {subsection}{\numberline {2.3}Using dampening to improve convergence}{4}}
\@writefile{lof}{\defcounter {refsection}{0}\relax }\@writefile{lof}{\contentsline {figure}{\numberline {2}{\ignorespaces Plot of minimum value of $A$ that will cause a simulation to diverge against the number of elements that were used in that simulation\relax }}{4}}
\newlabel{fig:aVn}{{2}{4}}
\@writefile{lof}{\defcounter {refsection}{0}\relax }\@writefile{lof}{\contentsline {figure}{\numberline {3}{\ignorespaces Plot of maximum value of $\alpha $ that will lead to convergence for a given value $A$\relax }}{4}}
\newlabel{fig:alphaVA}{{3}{4}}
\abx@aux@cite{emmaError}
\@writefile{toc}{\defcounter {refsection}{0}\relax }\@writefile{toc}{\contentsline {subsection}{\numberline {2.4}The relationship between the dampening factor and rate of convergence}{5}}
\@writefile{lof}{\defcounter {refsection}{0}\relax }\@writefile{lof}{\contentsline {figure}{\numberline {4}{\ignorespaces Log-log graph of the Euclidean norm of the residual at iteration $n$ against the Euclidean norm of the residual at iteration $n-1$.\relax }}{5}}
\newlabel{fig:gngn1}{{4}{5}}
